%YAML 1.1
%TAG !u! tag:unity3d.com,2011:
--- !u!1 &7571955591858616907
GameObject:
  m_ObjectHideFlags: 0
  m_CorrespondingSourceObject: {fileID: 0}
  m_PrefabInstance: {fileID: 0}
  m_PrefabAsset: {fileID: 0}
  serializedVersion: 6
  m_Component:
  - component: {fileID: 7571955591858616901}
  - component: {fileID: 7571955591858616900}
  m_Layer: 0
  m_Name: TowerSpawner
  m_TagString: Untagged
  m_Icon: {fileID: 0}
  m_NavMeshLayer: 0
  m_StaticEditorFlags: 0
  m_IsActive: 1
--- !u!4 &7571955591858616901
Transform:
  m_ObjectHideFlags: 0
  m_CorrespondingSourceObject: {fileID: 0}
  m_PrefabInstance: {fileID: 0}
  m_PrefabAsset: {fileID: 0}
  m_GameObject: {fileID: 7571955591858616907}
  m_LocalRotation: {x: 0, y: 0, z: 0, w: 1}
  m_LocalPosition: {x: 0, y: 0, z: 0}
  m_LocalScale: {x: 1, y: 1, z: 1}
  m_Children: []
  m_Father: {fileID: 0}
  m_RootOrder: 0
  m_LocalEulerAnglesHint: {x: 0, y: 0, z: 0}
--- !u!114 &7571955591858616900
MonoBehaviour:
  m_ObjectHideFlags: 0
  m_CorrespondingSourceObject: {fileID: 0}
  m_PrefabInstance: {fileID: 0}
  m_PrefabAsset: {fileID: 0}
  m_GameObject: {fileID: 7571955591858616907}
  m_Enabled: 1
  m_EditorHideFlags: 0
  m_Script: {fileID: 11500000, guid: 4c5bc210477c89743bfbba2b1e56f275, type: 3}
  m_Name: 
  m_EditorClassIdentifier: 
  redSpawnTransforms:
  - {fileID: 0}
  - {fileID: 0}
  blueSpawnTransform:
  - {fileID: 0}
  - {fileID: 0}
  towerPrefab: {fileID: 6257457949426698114, guid: 38cff74f0f8da294cbbf63b225663a37, type: 3}
  redTowers:
  - {fileID: 0}
  - {fileID: 0}
  - {fileID: 0}
  blueTowers:
  - {fileID: 0}
  - {fileID: 0}
  spawnRushBufferTime: 30
  spawnRushLengthTime: 10
